[
    {
        "source" : [
            "tap water from",
            "140 Prospect Ave, Apt 14R",
            "Hackensack, NJ - 07601, USA"
            ],
        "reading" : "351",
        "tested" : "2017-03-01",
        "testers" : ["raju", "prasanthi"]
    },
    {
        "source" : [
            "Kirkland Signature purified bottled water from",
            "2 Teterboro Landing Dr, Teterboro, NJ 07608"
            ],
        "reading" : "19",
        "tested" : "2017-03-01",
        "testers" : ["raju", "prasanthi", "gopi", "parvathi"]
    },
    {
        "source" : [
            "Poland spring bottled water"
            ],
        "reading" : "18",
        "tested" : "2017-03-01",
        "testers" : ["raju", "prasanthi", "gopi", "parvathi"]
    },
    {
        "source" : [
            "water from subway",
            "1 Teterboro Landing Dr",
            "Wal-Mart #3159",
            "Teterboro, NJ 07608, USA"
            ],
        "reading" : "348",
        "tested" : "2017-03-12",
        "testers" : ["raju"]
    }
]
